<?xml version="1.0" standalone="no"?>
<!DOCTYPE svg PUBLIC "-//W3C//DTD SVG 1.1//EN" "http://www.w3.org/Graphics/SVG/1.1/DTD/svg11.dtd" >
<svg xmlns="http://www.w3.org/2000/svg">
<metadata>Generated by IcoMoon</metadata>
<defs>
<font id="streamline-icons" horiz-adv-x="1024">
<font-face units-per-em="1024" ascent="960" descent="-64" />
<missing-glyph horiz-adv-x="1024" />
<glyph unicode="&#x20;" d="" horiz-adv-x="512" />
<glyph unicode="&#xe600;" d="M64 832h896v-128h-896v128zM64 511.808h896v-128h-896v128zM64 191.616h896v-128h-896v128z" />
<glyph unicode="&#xe603;" d="M895.552 512.064h0.32v320h-320l-63.872 63.936-512-512.512 128 0.512v-383.936h768v383.936l128-0.512-128.448 128.576zM768 384v-255.936h-192v191.936h-128v-191.936h-192v330.624l256 256.192 191.872-192.064v181.248h64v-245.312l0.128-0.064v-74.688z" />
<glyph unicode="&#xe604;" d="M768 832v64h-128v-64h-64v64h-128v-64h-64v64h-128v-64h-257.6v-896h1024v896h-254.4zM894.4 64h-768v640h129.6v-64h128v64h64v-64h128v64h64v-64h128v64h126.4v-640zM256 512h128v-128h-128v128zM448 512h128v-128h-128v128zM448 318.976h128v-128h-128v128zM640 512h128v-128h-128v128zM256 318.976h128v-128h-128v128zM640 318.976h128v-128h-128v128z" />
<glyph unicode="&#xe605;" d="M416.576 638.656c-52.8 0-95.488-42.688-95.488-95.488s42.688-95.488 95.488-95.488 95.488 42.688 95.488 95.488c0 52.8-42.688 95.488-95.488 95.488zM416.576 511.040c-17.792 0-32.128 14.4-32.128 32.128s14.336 32.192 32.128 32.192c17.792 0 32.128-14.4 32.128-32.192 0-17.792-14.336-32.128-32.128-32.128zM576.064 831.872l-447.36-0.576-0.576-447.36 447.936-447.936 447.936 447.936-447.936 447.936zM256.192 436.864l0.32 266.624 266.56 0.32 319.872-319.872-266.944-266.944-319.808 319.872z" />
<glyph unicode="&#xe606;" d="M-0.064 831.872v-702.976h192.064l0.704-192.896 319.296 192.896h512.064v702.976h-1024.128zM896.064 256.896h-437.312l-138.752-66.048-0.192 65.984h-191.872v447.040h768.128v-446.976zM255.936 447.936h512.128v-64h-512.128v64zM255.936 575.936h512.128v-64h-512.128v64z" />
<glyph unicode="&#xe607;" d="M704.704 704l-64 191.936h-512.64l-64.064-191.936h-64l64.064-703.936h895.872l64.064 703.936h-319.296zM547.712 767.936l21.312-63.936h-370.048l21.312 63.936h327.424zM843.072 128.064h-662.144l-40.768 447.808 743.616 0.128-40.704-447.936z" />
<glyph unicode="&#xe608;" d="M784.96 318.592l27.456-192h-600.832l27.456 192h91.904l181.056-181.248 181.056 181.248h91.904M895.936 446.592h-255.936l-128-128.128-128 128.128h-255.936l-64.064-448h896l-64.064 448zM512 767.488c48.704 0 88.384-39.68 88.512-85.888-3.712-23.488-40.576-73.6-88.512-124.16-48 50.368-84.736 99.84-88.384 121.664 0 48.768 39.68 88.384 88.384 88.384M512 895.488c-119.488 0-216.384-96.896-216.384-216.384 0-119.424 216.384-296.64 216.384-296.64s216.384 177.216 216.384 296.704c0 119.488-96.96 216.32-216.384 216.32v0z" />
</font></defs></svg>